Load CEBL Game Schedule — load_cebl_schedule • ceblR
…
    Examples

load_cebl_schedule(2020:2021)
#> Rows: 562 Columns: 27
#> ── Column specification ────────────────────────────────────────────────────────
#> Delimiter: ","
#> chr  (18): status, competition, venue_name, home_team_name, home_team_logo_u...
#> dbl   (8): fiba_id, season, period, home_team_id, home_team_score, away_team...
#> dttm  (1): start_time_utc
#> 
#> ℹ Use `spec()` to retrieve the full column specification for this data.
#> ℹ Specify the column types or set `show_col_types = FALSE` to quiet this message.
#> # A tibble: 80 × 27
#>    fiba_id season start_time_utc      status   competition venue_name     period
#>      <dbl>  <dbl> <dttm>              <chr>    <chr>       <chr>           <dbl>
#>  1 1716674   2020 2020-07-25 17:30:00 COMPLETE REGULAR     Meridian Cent…     NA
#>  2 1716676   2020 2020-07-25 19:50:00 COMPLETE REGULAR     Meridian Cent…     NA
#>  3 1716679   2020 2020-07-26 17:30:00 COMPLETE REGULAR     Meridian Cent…     NA
#>  4 1716681   2020 2020-07-26 20:00:00 COMPLETE REGULAR     Meridian Cent…     NA
#>  5 1716683   2020 2020-07-27 21:00:00 COMPLETE REGULAR     Meridian Cent…     NA
#>  6 1716685   2020 2020-07-27 23:30:00 COMPLETE REGULAR     Meridian Cent…     NA
#>  7 1716687   2020 2020-07-28 21:00:00 COMPLETE REGULAR     Meridian Cent…     NA
#>  8 1716689   2020 2020-07-28 23:30:00 COMPLETE REGULAR     Meridian Cent…     NA
#>  9 1716691   2020 2020-07-29 23:00:00 COMPLETE REGULAR     Meridian Cent…     NA
#> 10 1716693   2020 2020-07-30 23:00:00 COMPLETE REGULAR     Meridian Cent…     NA
#> # ℹ 70 more rows
#> # ℹ 20 more variables: home_team_id <dbl>, home_team_name <chr>,
#> #   home_team_score <dbl>, home_team_logo_url <chr>,
#> #   home_team_stats_url_en <chr>, home_team_stats_url_fr <chr>,
#> #   away_team_id <dbl>, away_team_name <chr>, away_team_score <dbl>,
#> #   away_team_logo_url <chr>, away_team_stats_url_en <chr>,
#> #   away_team_stats_url_fr <chr>, stats_url_en <chr>, stats_url_fr <chr>, …
…
