Load CEBL Team Boxscores — load_cebl_team_boxscores • ceblR
…
    Examples

load_cebl_team_boxscores(2020:2021)
#> Rows: 1122 Columns: 75
#> ── Column specification ────────────────────────────────────────────────────────
#> Delimiter: ","
#> chr (14): team_name, short_name, code, minutes, head_coach, assistant_coach_...
#> dbl (60): game_id, season, team_score, field_goals_made, field_goals_attempt...
#> lgl  (1): logo
#> 
#> ℹ Use `spec()` to retrieve the full column specification for this data.
#> ℹ Specify the column types or set `show_col_types = FALSE` to quiet this message.
#> # A tibble: 160 × 75
#>    game_id season team_name short_name code  team_score minutes field_goals_made
#>      <dbl>  <dbl> <chr>     <chr>      <chr>      <dbl> <chr>              <dbl>
#>  1 1716674   2020 Niagara … Niagara    NRL           97 200:00                36
#>  2 1716674   2020 Hamilton… Hamilton   HHB           85 200:00                27
#>  3 1716676   2020 Ottawa B… Blackjacks OBJ           71 200:00                24
#>  4 1716676   2020 Guelph N… Guelph     GNH           89 200:00                32
#>  5 1716679   2020 Saskatch… Saskatche… SKR           96 200:00                35
#>  6 1716679   2020 Niagara … Niagara    NRL           79 200:00                30
#>  7 1716681   2020 Edmonton… Edmonton   EDS          100 200:00                35
#>  8 1716681   2020 Fraser V… Fraser Va… FVB          113 200:00                40
#>  9 1716683   2020 Hamilton… Hamilton   HHB           97 200:00                33
#> 10 1716683   2020 Guelph N… Guelph     GNH           71 200:00                20
#> # ℹ 150 more rows
#> # ℹ 67 more variables: field_goals_attempted <dbl>,
#> #   field_goal_percentage <dbl>, two_point_field_goals_made <dbl>,
#> #   two_point_field_goals_attempted <dbl>, two_point_percentage <dbl>,
#> #   three_point_field_goals_made <dbl>,
#> #   three_point_field_goals_attempted <dbl>, three_point_percentage <dbl>,
#> #   free_throws_made <dbl>, free_throws_attempted <dbl>, …
…
